--------------------------------------------------------------------------------
PITSS.CON RDMCommonUtils ADF Generation Log 
--------------------------------------------------------------------------------
--------------------------------------------------------------------------------
Application Workspace Name      : RDMCommonUtils
Created at                      : 27/07/2015 22:23
--------------------------------------------------------------------------------
Conversion Parameters:
--------------------------------------------------------------------------------
Data Model Project Name         : RDMCommonUtilsModel
User Interface Project Name     : RDMCommonUtilsViewController
Application    Package Name     : com.ross.rdm.common.utils
JDeveloper Version              : 12.1.2.66.68
--------------------------------------------------------------------------------
